{
    "products": [
        {
            "id": "9558ade0-0530-4bb3-984c-55c162e40c97",
            "name": "bread",
            "price": 18.33,
            "image": "/img/bread.jpg"
        },
        {
            "id": "fd63559c-b2e8-46cd-bb17-652050c6d357",
            "name": "meat",
            "price": 97.63,
            "image": "/img/meat.jpg"
        },
        {
            "id": "ada6202e-d9b3-4f2b-aced-2174d2517dfe",
            "name": "sushi",
            "price": 23.37,
            "image": "/img/sushi.jpg"
        },
        {
            "id": "52226cbd-e144-4876-b493-9453dc103985",
            "name": "vegetables",
            "price": 43.93,
            "image": "/img/vegetables.jpg"
        }
    ]
}
